^C:\USERS\UNKNOWN\DOCUMENTS\DESIGN-PROJECT-A\PC\HELLO\HELLO\BITMAP_CONV.C
/c /ZI /JMC /nologo /W3 /WX- /diagnostics:classic /sdl /Od /D _DEBUG /D _CONSOLE /D _UNICODE /D UNICODE /Gm- /EHsc /RTC1 /MT /GS /fp:precise /permissive- /Zc:wchar_t /Zc:forScope /Zc:inline /Fo"X64\DEBUG\\" /Fd"X64\DEBUG\VC141.PDB" /Gd /TC /FC C:\USERS\UNKNOWN\DOCUMENTS\DESIGN-PROJECT-A\PC\HELLO\HELLO\BITMAP_CONV.C
^C:\USERS\UNKNOWN\DOCUMENTS\DESIGN-PROJECT-A\PC\HELLO\HELLO\HELLO_NEW.C
/c /ZI /JMC /nologo /W3 /WX- /diagnostics:classic /sdl /Od /D _DEBUG /D _CONSOLE /D _UNICODE /D UNICODE /Gm- /EHsc /RTC1 /MT /GS /fp:precise /permissive- /Zc:wchar_t /Zc:forScope /Zc:inline /Fo"X64\DEBUG\\" /Fd"X64\DEBUG\VC141.PDB" /Gd /TC /FC C:\USERS\UNKNOWN\DOCUMENTS\DESIGN-PROJECT-A\PC\HELLO\HELLO\HELLO_NEW.C
^C:\USERS\UNKNOWN\DOCUMENTS\DESIGN-PROJECT-A\PC\HELLO\HELLO\LIBBMP.C
/c /ZI /JMC /nologo /W3 /WX- /diagnostics:classic /sdl /Od /D _DEBUG /D _CONSOLE /D _UNICODE /D UNICODE /Gm- /EHsc /RTC1 /MT /GS /fp:precise /permissive- /Zc:wchar_t /Zc:forScope /Zc:inline /Fo"X64\DEBUG\\" /Fd"X64\DEBUG\VC141.PDB" /Gd /TC /FC C:\USERS\UNKNOWN\DOCUMENTS\DESIGN-PROJECT-A\PC\HELLO\HELLO\LIBBMP.C
