^C:\USERS\UNKNOWN\DOCUMENTS\DESIGN-PROJECT-A\PC\HELLO\HELLO\BITMAP_CONV.C|C:\USERS\UNKNOWN\DOCUMENTS\DESIGN-PROJECT-A\PC\HELLO\HELLO\HELLO_NEW.C|C:\USERS\UNKNOWN\DOCUMENTS\DESIGN-PROJECT-A\PC\HELLO\HELLO\LIBBMP.C
C:\USERS\UNKNOWN\DOCUMENTS\DESIGN-PROJECT-A\PC\HELLO\HELLO\X64\DEBUG\VC141.PDB
C:\USERS\UNKNOWN\DOCUMENTS\DESIGN-PROJECT-A\PC\HELLO\HELLO\X64\DEBUG\VC141.IDB
C:\USERS\UNKNOWN\DOCUMENTS\DESIGN-PROJECT-A\PC\HELLO\HELLO\X64\DEBUG\LIBBMP.OBJ
C:\USERS\UNKNOWN\DOCUMENTS\DESIGN-PROJECT-A\PC\HELLO\HELLO\X64\DEBUG\HELLO_NEW.OBJ
C:\USERS\UNKNOWN\DOCUMENTS\DESIGN-PROJECT-A\PC\HELLO\HELLO\X64\DEBUG\BITMAP_CONV.OBJ
^C:\USERS\UNKNOWN\DOCUMENTS\DESIGN-PROJECT-A\PC\HELLO\HELLO\BITMAP_CONV.C
C:\USERS\UNKNOWN\DOCUMENTS\DESIGN-PROJECT-A\PC\HELLO\HELLO\X64\DEBUG\VC141.PDB
^C:\USERS\UNKNOWN\DOCUMENTS\DESIGN-PROJECT-A\PC\HELLO\HELLO\HELLO_NEW.C
C:\USERS\UNKNOWN\DOCUMENTS\DESIGN-PROJECT-A\PC\HELLO\HELLO\X64\DEBUG\VC141.PDB
^C:\USERS\UNKNOWN\DOCUMENTS\DESIGN-PROJECT-A\PC\HELLO\HELLO\LIBBMP.C
C:\USERS\UNKNOWN\DOCUMENTS\DESIGN-PROJECT-A\PC\HELLO\HELLO\X64\DEBUG\VC141.PDB
