^C:\USERS\UNKNOWN\DOCUMENTS\DESIGN-PROJECT-A\PC\HELLO\HELLO\DPCUTIL.LIB|C:\USERS\UNKNOWN\DOCUMENTS\DESIGN-PROJECT-A\PC\HELLO\HELLO\X64\DEBUG\BITMAP_CONV.OBJ|C:\USERS\UNKNOWN\DOCUMENTS\DESIGN-PROJECT-A\PC\HELLO\HELLO\X64\DEBUG\HELLO_NEW.OBJ|C:\USERS\UNKNOWN\DOCUMENTS\DESIGN-PROJECT-A\PC\HELLO\HELLO\X64\DEBUG\LIBBMP.OBJ
C:\USERS\UNKNOWN\DOCUMENTS\DESIGN-PROJECT-A\PC\HELLO\X64\DEBUG\HELLO_NEW.ILK
C:\USERS\UNKNOWN\DOCUMENTS\DESIGN-PROJECT-A\PC\HELLO\X64\DEBUG\HELLO_NEW.EXE
C:\USERS\UNKNOWN\DOCUMENTS\DESIGN-PROJECT-A\PC\HELLO\X64\DEBUG\HELLO_NEW.PDB
